"Noise","UK","Brown Goods","ALL","SONY","REPAIR",NULL,"DIGITAL SLR CAMERA",NULL,"BIRMINGHAM SPECIALISED SERVICES"
"Noise","UK","Brown Goods","ALL","SONY","REPAIR",NULL,"DIGITAL STILLS CAMERA",NULL,"BIRMINGHAM SPECIALISED SERVICES"
"Noise","UK","Brown Goods","ALL","SONY","REPAIR",NULL,"DIGITAL CAMCORDER",NULL,"BIRMINGHAM SPECIALISED SERVICES"
"Noise","UK","Brown Goods","ALL","CANON","REPAIR",NULL,"DIGITAL STILLS CAMERA",NULL,"BIRMINGHAM SPECIALISED SERVICES"
"Noise","UK","Brown Goods","ALL","CANON","REPAIR",NULL,"DIGITAL CAMCORDER",NULL,"BIRMINGHAM SPECIALISED SERVICES"
"Noise","UK","Brown Goods","ALL","CANON","REPAIR",NULL,"DIGITAL SLR CAMERA",NULL,"BIRMINGHAM SPECIALISED SERVICES"
"Noise","UK","Brown Goods","ALL","SONY","REPAIR",NULL,"DIGITAL STILLS CAMERA",NULL,"D K AUDIO VISUAL SERVICES MITCHAM"
"Noise","UK","Brown Goods","ALL","SONY","REPAIR",NULL,"DIGITAL CAMCORDER",NULL,"D K AUDIO VISUAL SERVICES MITCHAM"
"Noise","UK","Brown Goods","ALL","SAMSUNG","REPAIR",NULL,"DIGITAL STILLS CAMERA",NULL,"D K AUDIO VISUAL SERVICES MITCHAM"
"Noise","UK","Brown Goods","ALL","CANON","REPAIR",NULL,"DIGITAL STILLS CAMERA",NULL,"D K AUDIO VISUAL SERVICES MITCHAM"
"Noise","UK","Brown Goods","ALL","PANASONIC","REPAIR",NULL,"DIGITAL STILLS CAMERA",NULL,"D K AUDIO VISUAL SERVICES MITCHAM"
"Noise","UK","Brown Goods","ALL","SAMSUNG","REPAIR",NULL,"DIGITAL SLR CAMERA",NULL,"D K AUDIO VISUAL SERVICES MITCHAM"
"Noise","UK","Brown Goods","ALL","PANASONIC","REPAIR",NULL,"DIGITAL CAMCORDER",NULL,"D K AUDIO VISUAL SERVICES MITCHAM"
"Noise","UK","Brown Goods","ALL","ONKYO","REPAIR",NULL,NULL,NULL,"GENSERVE"
"Noise","UK","Brown Goods","ALL","ESCIENT","REPAIR",NULL,NULL,NULL,"GENSERVE"
"Noise","UK","Brown Goods","ALL","MORDAUNT SHORT","REPAIR",NULL,NULL,NULL,"GENSERVE"
"Noise","UK","Brown Goods","ALL","TEAC","REPAIR",NULL,"AUDIO",NULL,"JF Associates"
"Noise","UK","Brown Goods","ALL","PIONEER","REPAIR","Warranty","AUDIO",NULL,"JF Associates"
"Noise","UK","Brown Goods","ALL","PIONEER","REPAIR","Warranty","HOME CINEMA",NULL,"JF Associates"
"Noise","UK","Brown Goods","ALL","PIONEER","REPAIR","Warranty","DVD/BLU RAY",NULL,"JF Associates"
"Noise","UK","Brown Goods","ALL","DENON","REPAIR","Warranty",NULL,NULL,"SONTEC (ELECTRONICS) LTD"
"Noise","UK","Brown Goods","ALL","MARANTZ","REPAIR","Warranty",NULL,NULL,"SONTEC (ELECTRONICS) LTD"
"Noise","UK","Brown Goods","ALL","TEAC","REPAIR","Warranty",NULL,NULL,"SONTEC (ELECTRONICS) LTD"
"Noise","UK","Brown Goods","ALL","JVC","REPAIR",NULL,"DIGITAL CAMCORDER",NULL,"SONTEC (ELECTRONICS) LTD"
"Noise","UK","Brown Goods","ALL","HITACHI","REPAIR",NULL,"LCD PROJECTOR",NULL,"SERVICECARE SUPPORT SERVICES LTD"
"Noise","UK","Brown Goods","ALL","TOSHIBA","REPAIR","Warranty","LCD TV <32inch",NULL,"SERVICECARE SUPPORT SERVICES LTD"
"Noise","UK","Brown Goods","ALL","TOSHIBA","REPAIR","Warranty","LCD TV 32INCH",NULL,"SERVICECARE SUPPORT SERVICES LTD"
"Noise","UK","Brown Goods","ALL","TV AERIAL",NULL,NULL,NULL,NULL,"HYDE PARK CORNER"
"Noise","UK","Brown Goods","ALL","YAMAHA","REPAIR","Warranty",NULL,NULL,"SONTEC (ELECTRONICS) LTD"
"Noise","UK","Brown Goods","ALL","YAMAHA","REPAIR","Warranty",NULL,NULL,"JF Associates"
